…
What do I have now?

``` r
boot_results
```

    ## # A tibble: 2,000 x 6
    ##    strap_number term        estimate std.error statistic   p.value
    ##           <int> <chr>          <dbl>     <dbl>     <dbl>     <dbl>
    ##  1            1 (Intercept)     1.89    0.118       16.0 4.78e- 40
    ##  2            1 x               3.12    0.0843      37.0 5.32e-103
    ##  3            2 (Intercept)     2.06    0.0976      21.1 3.71e- 57
    ##  4            2 x               2.97    0.0690      43.1 2.89e-117
    ##  5            3 (Intercept)     2.04    0.102       20.0 9.03e- 54
    ##  6            3 x               3.03    0.0699      43.3 1.43e-117
    ##  7            4 (Intercept)     1.90    0.113       16.8 1.01e- 42
    ##  8            4 x               3.18    0.0772      41.2 7.18e-113
    ##  9            5 (Intercept)     1.95    0.112       17.3 1.22e- 44
    ## 10            5 x               2.97    0.0787      37.8 6.61e-105
    ## # … with 1,990 more rows
…
